…
Cargar la base:

``` r
library(eleccionesNic)
```

Para ver el tibble que contiene los datos, haga esto:

``` r
nic_elecciones
#> # A tibble: 72 × 35
#>     year departame…¹ munic…²   jrv inscr…³ total…⁴ total…⁵ nulos nulos…⁶ votos…⁷
#>    <dbl> <chr>         <dbl> <dbl>   <dbl>   <dbl>   <dbl> <dbl>   <dbl>   <dbl>
#>  1  1990 Nueva Sego…      11   127   49842   44410   0.891  3288  0.074    41122
#>  2  1990 Madriz            9   122   42847   37658   0.879  3127  0.083    34531
#>  3  1990 Esteli            6   212   76441   68155   0.892  4134  0.0607   64021
#>  4  1990 Chinandega       13   333  145519  123366   0.848  5732  0.0465  117634
#>  5  1990 Leon             10   374  149131  128948   0.865  5547  0.043   123401
#>  6  1990 Managua           7  1096  462771  408987   0.884 17569  0.043   391418
#>  7  1990 Masaya            9   252  102294   93797   0.917  5537  0.059    88260
#>  8  1990 Carazo            8   190   66627   58341   0.876  3743  0.0642   54598
#>  9  1990 Granada           4   203   68792   62014   0.902  4005  0.0646   58009
#> 10  1990 Rivas            10   215   62600   56146   0.897  2982  0.0531   53164
#> # … with 62 more rows, 25 more variables: validos_porcentaje <dbl>, uno <dbl>,
#> #   psoc <dbl>, pliun <dbl>, prt <dbl>, fsln <dbl>, map_ml <dbl>, psc <dbl>,
#> #   puca <dbl>, pcdn <dbl>, mur <dbl>, al <dbl>, pcn <dbl>, ccn <dbl>,
#> #   pronal <dbl>, mrs <dbl>, prn <dbl>, anc <dbl>, u <dbl>, pli <dbl>,
#> #   uno_96 <dbl>, plc <dbl>, ac <dbl>, aln <dbl>, otros <dbl>, and abbreviated
#> #   variable names ¹​departamento, ²​municipios, ³​inscritos, ⁴​total_votos,
#> #   ⁵​total_porcentaje, ⁶​nulos_porcentaje, ⁷​votos_validos
```
…
## Elecciones 2021

``` r
elecciones2021
#> # A tibble: 3,105 × 9
#>    departamento  municipio      centro_de_…¹   plc  fsln   ccn   aln  apre   pli
#>    <chr>         <chr>          <chr>        <dbl> <dbl> <dbl> <dbl> <dbl> <dbl>
#>  1 NUEVA SEGOVIA CIUDAD ANTIGUA 001 - CENTR…   158   780    49    43    27    21
#>  2 NUEVA SEGOVIA CIUDAD ANTIGUA 500 - ESCUE…    73   387     1     1     1     0
#>  3 NUEVA SEGOVIA CIUDAD ANTIGUA 503 - ESCUE…   232   838    58    58    32    23
#>  4 NUEVA SEGOVIA DIPILTO        001 - ESCUE…     2   307     1     0     0     0
#>  5 NUEVA SEGOVIA DIPILTO        500 - ESCUE…    98   400    21    24     9     7
#>  6 NUEVA SEGOVIA DIPILTO        501 - ESCUE…    15   246     0     5     1     1
#>  7 NUEVA SEGOVIA DIPILTO        502 - ESCUE…   166   799    34    37    14    25
#>  8 NUEVA SEGOVIA DIPILTO        504 - ESCUE…     4   239     1     1     0     0
#>  9 NUEVA SEGOVIA EL JICARO      001 - DELEG…   135   585    37    33    20    19
#> 10 NUEVA SEGOVIA EL JICARO      002 - INSTI…   203   887    53    56    41    29
#> # … with 3,095 more rows, and abbreviated variable name ¹​centro_de_votacion
…
